{
  "homepage": "https://bitbucket.org/NKeNtertainment/noresplus/src/ccbf17ed6f7b",
  "1.10.2": {
	"1.4.0": "Release! Added Ruby and Sapphire now it's game on!"
	"1.3.0": "Beta Release version! Added Zektzerite!"
    "1.2.0": "Beta Release version! Added Gaspeite and added the description to refiner items."
    "1.1.0": "Beta Release version! Fixed the crafting recipes."
    "1.0.0": "Beta Release version! Added Malachite and Calcite!"
    "0.8.5": "Alpha Release version! Added all refiners from original materials, added Chrysocolla.",
    "0.9.0": "Alpha Release version! Added Malachite."
    "0.8.5": "Alpha Release version! Added all refiners from original materials, added Chrysocolla.",
    "0.7.12": "Alpha Release version! New item type added: refiner. Fixed bugs with enchanting.",
    "0.7.7": "ALPHA Release version! Mod now fully working.",
    ...
  },
  ...
  "promos": {
    "1.10.2-latest": "1.4.0",
    "1.10.2-recommended": "1.4.0",
    ...
  }
}